[
  {
    "id":"bento1",
    "name":"唐揚げ弁当",
    "subtitle":"(秋田県産若鶏使用)",
    "price":710,
    "image":"karaage.jpg",
    "delvFee":0,
    "isSale":true,
    "popularNum":3.5,
    "stock":10
  },
  {
    "id":"bento2",
    "name":"幕の内弁当",
    "subtitle":"(やさしい味付けです)",
    "price":1130,
    "image":"makunouchi.jpg",
    "delvFee":0,
    "isSale":false,
    "popularNum":4.1,
    "stock":15
  },
  {
    "id":"bento3",
    "name":"焼売弁当",
    "subtitle":"(お肉たっぷりのシュウマイです。)",
    "price":980,
    "image":"shumai.jpg",
    "delvFee":0,
    "isSale":true,
    "popularNum":2.9,
    "stock":13
  },
  {
    "id":"bento4",
    "name":"焼肉弁当",
    "subtitle":"(国産牛肉を使用)",
    "price":1200,
    "image":"yakiniku.jpg",
    "delvFee":0,
    "isSale":false,
    "popularNum":3.0,
    "stock":7
  },
  {
    "id":"bento5",
    "name":"ハンバーグ弁当",
    "subtitle":"(豚肉のハンバーグです。)",
    "price":1220,
    "image":"hanburg.jpg",
    "delvFee":0,
    "isSale":false,
    "popularNum":3.8,
    "stock":20
  },
  {
    "id":"bento6",
    "name":"松花堂弁当",
    "subtitle":"(あっさりとした味付けです。)",
    "price":1580,
    "image":"shokado.jpg",
    "delvFee":200,
    "isSale":false,
    "popularNum":1.9,
    "stock":3
  },
  {
    "id":"bento7",
    "name":"鮭弁当",
    "subtitle":"(定番のお弁当です。)",
    "price":850,
    "image":"salmon.jpg",
    "delvFee":0,
    "isSale":true,
    "popularNum":4.8,
    "stock":6
  },
  {
    "id":"bento8",
    "name":"うな重",
    "subtitle":"(たまには贅沢もいかが。)",
    "price":2340,
    "image":"unaju.jpg",
    "delvFee":500,
    "isSale":false,
    "popularNum":4.5,
    "stock":10
  },
  {
    "id":"bento9",
    "name":"天丼弁当",
    "subtitle":"(季節によってネタが変わります。)",
    "price":990,
    "image":"tendon.jpg",
    "delvFee":300,
    "isSale":false,
    "popularNum":3.7,
    "stock":10
  },
  {
    "id":"bento10",
    "name":"生姜焼き弁当",
    "subtitle":"(男性に人気です。)",
    "price":870,
    "image":"shogayaki.jpg",
    "delvFee":0,
    "isSale":true,
    "popularNum":3.3,
    "stock":15
  },
  {
    "id":"bento11",
    "name":"日替わり弁当",
    "subtitle":"(中身は当日のお楽しみ。)",
    "price":900,
    "image":"higawari.jpg",
    "delvFee":0,
    "isSale":false,
    "popularNum":3.3,
    "stock":4
  },
  {
    "id":"bento12",
    "name":"カレーライス",
    "subtitle":"(昔ながらのカレーです。)",
    "price":730,
    "image":"curry.jpg",
    "delvFee":0,
    "isSale":false,
    "popularNum":3.8,
    "stock":6
  },
  {
    "id":"bento13",
    "name":"のり弁当",
    "subtitle":"(当店一番安い弁当です。)",
    "price":700,
    "image":"seaweed.jpg",
    "delvFee":0,
    "isSale":false,
    "popularNum":4.0,
    "stock":10
  },
  {
    "id":"bento14",
    "name":"とんかつ弁当",
    "subtitle":"(ボリューム満点です。)",
    "price":1040,
    "image":"friedpork.jpg",
    "delvFee":400,
    "isSale":false,
    "popularNum":4.8,
    "stock":5
  }
]
